{
    "server": {
        "port": 8060
    },
    "paths": {
        "lib": {
            "node_modules": "node_modules",
            "bower_components": "bower_components"
        },
        "src": {
            "app": [
                "./src/main/assets/js/app.js"
            ],
            "styles": [
                "src/main/assets/css/**/*.css"
            ],
            "scripts": [
                "src/main/assets/js/**/*.js"
            ],
            "images": [
                "src/main/assets/img/**/*"
            ]
        },
        "dest": {
            "root": "target",
            "styles": "target/react-sample/",
            "scripts": "target/react-sample/",
            "images": "target/react-sample/img"
        }
    }
}